(kicad_symbol_lib (version 20220914) (generator kicad_symbol_editor)
  (symbol "ESP32-PICO-D4" (in_bom yes) (on_board yes)
    (property "Reference" "U" (at -17.78 39.37 0)
      (effects (font (size 1.27 1.27)) (justify left))
    )
    (property "Value" "ESP32-PICO-D4" (at 3.81 39.37 0)
      (effects (font (size 1.27 1.27)) (justify left))
    )
    (property "Footprint" "Package_DFN_QFN:QFN-48-1EP_7x7mm_P0.5mm_EP5.3x5.3mm" (at 31.75 -39.37 0)
      (effects (font (size 1.27 1.27)) hide)
    )
    (property "Datasheet" "https://www.espressif.com/sites/default/files/documentation/esp32-pico-d4_datasheet_en.pdf" (at 0 0 0)
      (effects (font (size 1.27 1.27)) hide)
    )
    (property "ki_keywords" "RF Radio BT ESP ESP32 Espressif external antenna" (at 0 0 0)
      (effects (font (size 1.27 1.27)) hide)
    )
    (property "ki_description" "RF Module, ESP32 SoC, Wi-Fi 802.11b/g/n, Bluetooth, BLE, 32-bit, 2.7-3.6V, external antenna, QFN-48" (at 0 0 0)
      (effects (font (size 1.27 1.27)) hide)
    )
    (property "ki_fp_filters" "QFN*1EP*7x7mm*P0.5mm*" (at 0 0 0)
      (effects (font (size 1.27 1.27)) hide)
    )
    (symbol "ESP32-PICO-D4_0_0"
      (pin power_in line (at -5.08 40.64 270) (length 2.54)
        (name "VDDA" (effects (font (size 1.27 1.27))))
        (number "1" (effects (font (size 1.27 1.27))))
      )
      (pin input line (at 20.32 -25.4 180) (length 2.54)
        (name "IO34" (effects (font (size 1.27 1.27))))
        (number "10" (effects (font (size 1.27 1.27))))
      )
      (pin input line (at 20.32 -27.94 180) (length 2.54)
        (name "IO35" (effects (font (size 1.27 1.27))))
        (number "11" (effects (font (size 1.27 1.27))))
      )
      (pin bidirectional line (at 20.32 -20.32 180) (length 2.54)
        (name "IO32" (effects (font (size 1.27 1.27))))
        (number "12" (effects (font (size 1.27 1.27))))
      )
      (pin bidirectional line (at 20.32 -22.86 180) (length 2.54)
        (name "IO33" (effects (font (size 1.27 1.27))))
        (number "13" (effects (font (size 1.27 1.27))))
      )
      (pin bidirectional line (at 20.32 -12.7 180) (length 2.54)
        (name "IO25" (effects (font (size 1.27 1.27))))
        (number "14" (effects (font (size 1.27 1.27))))
      )
      (pin bidirectional line (at 20.32 -15.24 180) (length 2.54)
        (name "IO26" (effects (font (size 1.27 1.27))))
        (number "15" (effects (font (size 1.27 1.27))))
      )
      (pin bidirectional line (at 20.32 -17.78 180) (length 2.54)
        (name "IO27" (effects (font (size 1.27 1.27))))
        (number "16" (effects (font (size 1.27 1.27))))
      )
      (pin bidirectional line (at 20.32 5.08 180) (length 2.54)
        (name "IO14" (effects (font (size 1.27 1.27))))
        (number "17" (effects (font (size 1.27 1.27))))
      )
      (pin bidirectional line (at 20.32 10.16 180) (length 2.54)
        (name "IO12" (effects (font (size 1.27 1.27))))
        (number "18" (effects (font (size 1.27 1.27))))
      )
      (pin power_in line (at 0 40.64 270) (length 2.54)
        (name "VDD3P3_RTC" (effects (font (size 1.27 1.27))))
        (number "19" (effects (font (size 1.27 1.27))))
      )
      (pin bidirectional line (at 20.32 35.56 180) (length 2.54)
        (name "LNA_IN" (effects (font (size 1.27 1.27))))
        (number "2" (effects (font (size 1.27 1.27))))
      )
      (pin bidirectional line (at 20.32 7.62 180) (length 2.54)
        (name "IO13" (effects (font (size 1.27 1.27))))
        (number "20" (effects (font (size 1.27 1.27))))
      )
      (pin bidirectional line (at 20.32 2.54 180) (length 2.54)
        (name "IO15" (effects (font (size 1.27 1.27))))
        (number "21" (effects (font (size 1.27 1.27))))
      )
      (pin bidirectional line (at 20.32 25.4 180) (length 2.54)
        (name "IO2" (effects (font (size 1.27 1.27))))
        (number "22" (effects (font (size 1.27 1.27))))
      )
      (pin bidirectional line (at 20.32 30.48 180) (length 2.54)
        (name "IO0" (effects (font (size 1.27 1.27))))
        (number "23" (effects (font (size 1.27 1.27))))
      )
      (pin bidirectional line (at 20.32 20.32 180) (length 2.54)
        (name "IO4" (effects (font (size 1.27 1.27))))
        (number "24" (effects (font (size 1.27 1.27))))
      )
      (pin bidirectional line (at -20.32 0 0) (length 2.54)
        (name "IO16" (effects (font (size 1.27 1.27))))
        (number "25" (effects (font (size 1.27 1.27))))
      )
      (pin power_out line (at 20.32 -33.02 180) (length 2.54)
        (name "VDD_SDIO" (effects (font (size 1.27 1.27))))
        (number "26" (effects (font (size 1.27 1.27))))
      )
      (pin bidirectional line (at -20.32 -2.54 0) (length 2.54)
        (name "IO17" (effects (font (size 1.27 1.27))))
        (number "27" (effects (font (size 1.27 1.27))))
      )
      (pin bidirectional line (at 20.32 15.24 180) (length 2.54)
        (name "SD2/IO9" (effects (font (size 1.27 1.27))))
        (number "28" (effects (font (size 1.27 1.27))))
      )
      (pin bidirectional line (at 20.32 12.7 180) (length 2.54)
        (name "SD3/IO10" (effects (font (size 1.27 1.27))))
        (number "29" (effects (font (size 1.27 1.27))))
      )
      (pin power_in line (at -2.54 40.64 270) (length 2.54)
        (name "VDDA3P3" (effects (font (size 1.27 1.27))))
        (number "3" (effects (font (size 1.27 1.27))))
      )
      (pin bidirectional line (at -20.32 -12.7 0) (length 2.54)
        (name "CMD" (effects (font (size 1.27 1.27))))
        (number "30" (effects (font (size 1.27 1.27))))
      )
      (pin bidirectional line (at -20.32 -10.16 0) (length 2.54)
        (name "CLK" (effects (font (size 1.27 1.27))))
        (number "31" (effects (font (size 1.27 1.27))))
      )
      (pin bidirectional line (at -20.32 -5.08 0) (length 2.54)
        (name "SD0" (effects (font (size 1.27 1.27))))
        (number "32" (effects (font (size 1.27 1.27))))
      )
      (pin bidirectional line (at -20.32 -7.62 0) (length 2.54)
        (name "SD1" (effects (font (size 1.27 1.27))))
        (number "33" (effects (font (size 1.27 1.27))))
      )
      (pin bidirectional line (at 20.32 17.78 180) (length 2.54)
        (name "IO5" (effects (font (size 1.27 1.27))))
        (number "34" (effects (font (size 1.27 1.27))))
      )
      (pin bidirectional line (at 20.32 0 180) (length 2.54)
        (name "IO18" (effects (font (size 1.27 1.27))))
        (number "35" (effects (font (size 1.27 1.27))))
      )
      (pin bidirectional line (at 20.32 -10.16 180) (length 2.54)
        (name "IO23" (effects (font (size 1.27 1.27))))
        (number "36" (effects (font (size 1.27 1.27))))
      )
      (pin power_in line (at 2.54 40.64 270) (length 2.54)
        (name "VDD3P3_CPU" (effects (font (size 1.27 1.27))))
        (number "37" (effects (font (size 1.27 1.27))))
      )
      (pin bidirectional line (at 20.32 -2.54 180) (length 2.54)
        (name "IO19" (effects (font (size 1.27 1.27))))
        (number "38" (effects (font (size 1.27 1.27))))
      )
      (pin bidirectional line (at 20.32 -7.62 180) (length 2.54)
        (name "IO22" (effects (font (size 1.27 1.27))))
        (number "39" (effects (font (size 1.27 1.27))))
      )
      (pin passive line (at -2.54 40.64 270) (length 2.54) hide
        (name "VDDA3P3" (effects (font (size 1.27 1.27))))
        (number "4" (effects (font (size 1.27 1.27))))
      )
      (pin bidirectional line (at 20.32 22.86 180) (length 2.54)
        (name "U0RXD/IO3" (effects (font (size 1.27 1.27))))
        (number "40" (effects (font (size 1.27 1.27))))
      )
      (pin bidirectional line (at 20.32 27.94 180) (length 2.54)
        (name "U0TXD/IO1" (effects (font (size 1.27 1.27))))
        (number "41" (effects (font (size 1.27 1.27))))
      )
      (pin bidirectional line (at 20.32 -5.08 180) (length 2.54)
        (name "IO21" (effects (font (size 1.27 1.27))))
        (number "42" (effects (font (size 1.27 1.27))))
      )
      (pin passive line (at -5.08 40.64 270) (length 2.54) hide
        (name "VDDA" (effects (font (size 1.27 1.27))))
        (number "43" (effects (font (size 1.27 1.27))))
      )
      (pin no_connect line (at -17.78 -25.4 0) (length 2.54) hide
        (name "XTAL_N_NC" (effects (font (size 1.27 1.27))))
        (number "44" (effects (font (size 1.27 1.27))))
      )
      (pin no_connect line (at -17.78 -27.94 0) (length 2.54) hide
        (name "XTAL_P_NC" (effects (font (size 1.27 1.27))))
        (number "45" (effects (font (size 1.27 1.27))))
      )
      (pin passive line (at -5.08 40.64 270) (length 2.54) hide
        (name "VDDA" (effects (font (size 1.27 1.27))))
        (number "46" (effects (font (size 1.27 1.27))))
      )
      (pin no_connect line (at -17.78 -30.48 0) (length 2.54) hide
        (name "CAP2_NC" (effects (font (size 1.27 1.27))))
        (number "47" (effects (font (size 1.27 1.27))))
      )
      (pin no_connect line (at -17.78 -33.02 0) (length 2.54) hide
        (name "CAP1_NC" (effects (font (size 1.27 1.27))))
        (number "48" (effects (font (size 1.27 1.27))))
      )
      (pin power_in line (at 0 -40.64 90) (length 2.54)
        (name "GND" (effects (font (size 1.27 1.27))))
        (number "49" (effects (font (size 1.27 1.27))))
      )
      (pin input line (at -20.32 30.48 0) (length 2.54)
        (name "SENSOR_VP" (effects (font (size 1.27 1.27))))
        (number "5" (effects (font (size 1.27 1.27))))
      )
      (pin input line (at -20.32 27.94 0) (length 2.54)
        (name "SENSOR_CAPP" (effects (font (size 1.27 1.27))))
        (number "6" (effects (font (size 1.27 1.27))))
      )
      (pin input line (at -20.32 25.4 0) (length 2.54)
        (name "SENSOR_CAPN" (effects (font (size 1.27 1.27))))
        (number "7" (effects (font (size 1.27 1.27))))
      )
      (pin input line (at -20.32 22.86 0) (length 2.54)
        (name "SENSOR_VN" (effects (font (size 1.27 1.27))))
        (number "8" (effects (font (size 1.27 1.27))))
      )
      (pin input line (at -20.32 35.56 0) (length 2.54)
        (name "EN" (effects (font (size 1.27 1.27))))
        (number "9" (effects (font (size 1.27 1.27))))
      )
    )
    (symbol "ESP32-PICO-D4_0_1"
      (rectangle (start -17.78 38.1) (end 17.78 -38.1)
        (stroke (width 0.254) (type default))
        (fill (type background))
      )
    )
  )
  (symbol "ESP8266EX" (in_bom yes) (on_board yes)
    (property "Reference" "U" (at 0 2.54 0)
      (effects (font (size 1.27 1.27)))
    )
    (property "Value" "ESP8266EX" (at 0 -2.54 0)
      (effects (font (size 1.27 1.27)))
    )
    (property "Footprint" "Package_DFN_QFN:QFN-32-1EP_5x5mm_P0.5mm_EP3.45x3.45mm" (at 0 -33.02 0)
      (effects (font (size 1.27 1.27)) hide)
    )
    (property "Datasheet" "http://espressif.com/sites/default/files/documentation/0a-esp8266ex_datasheet_en.pdf" (at 2.54 -33.02 0)
      (effects (font (size 1.27 1.27)) hide)
    )
    (property "ki_keywords" "wifi soc" (at 0 0 0)
      (effects (font (size 1.27 1.27)) hide)
    )
    (property "ki_description" "Highly integrated Wi-Fi SoC, QFN-32" (at 0 0 0)
      (effects (font (size 1.27 1.27)) hide)
    )
    (property "ki_fp_filters" "QFN*1EP*5x5mm*P0.5mm*" (at 0 0 0)
      (effects (font (size 1.27 1.27)) hide)
    )
    (symbol "ESP8266EX_0_1"
      (rectangle (start -20.32 22.86) (end 20.32 -25.4)
        (stroke (width 0.254) (type default))
        (fill (type background))
      )
    )
    (symbol "ESP8266EX_1_1"
      (pin power_in line (at -12.7 25.4 270) (length 2.54)
        (name "VDDA" (effects (font (size 1.27 1.27))))
        (number "1" (effects (font (size 1.27 1.27))))
      )
      (pin bidirectional line (at 22.86 -17.78 180) (length 2.54)
        (name "MTDI" (effects (font (size 1.27 1.27))))
        (number "10" (effects (font (size 1.27 1.27))))
      )
      (pin power_in line (at 0 25.4 270) (length 2.54)
        (name "VDDPST" (effects (font (size 1.27 1.27))))
        (number "11" (effects (font (size 1.27 1.27))))
      )
      (pin bidirectional line (at 22.86 -7.62 180) (length 2.54)
        (name "MTCK" (effects (font (size 1.27 1.27))))
        (number "12" (effects (font (size 1.27 1.27))))
      )
      (pin bidirectional line (at 22.86 -15.24 180) (length 2.54)
        (name "MTDO" (effects (font (size 1.27 1.27))))
        (number "13" (effects (font (size 1.27 1.27))))
      )
      (pin bidirectional line (at 22.86 -5.08 180) (length 2.54)
        (name "GPIO2" (effects (font (size 1.27 1.27))))
        (number "14" (effects (font (size 1.27 1.27))))
      )
      (pin bidirectional line (at 22.86 0 180) (length 2.54)
        (name "GPIO0" (effects (font (size 1.27 1.27))))
        (number "15" (effects (font (size 1.27 1.27))))
      )
      (pin bidirectional line (at 22.86 -20.32 180) (length 2.54)
        (name "GPIO4" (effects (font (size 1.27 1.27))))
        (number "16" (effects (font (size 1.27 1.27))))
      )
      (pin power_in line (at 2.54 25.4 270) (length 2.54)
        (name "VDDPST" (effects (font (size 1.27 1.27))))
        (number "17" (effects (font (size 1.27 1.27))))
      )
      (pin bidirectional line (at 22.86 10.16 180) (length 2.54)
        (name "SDIO_DATA_2" (effects (font (size 1.27 1.27))))
        (number "18" (effects (font (size 1.27 1.27))))
      )
      (pin bidirectional line (at 22.86 7.62 180) (length 2.54)
        (name "SDIO_DATA_3" (effects (font (size 1.27 1.27))))
        (number "19" (effects (font (size 1.27 1.27))))
      )
      (pin bidirectional line (at -22.86 0 0) (length 2.54)
        (name "LNA" (effects (font (size 1.27 1.27))))
        (number "2" (effects (font (size 1.27 1.27))))
      )
      (pin bidirectional line (at 22.86 17.78 180) (length 2.54)
        (name "SDIO_CMD" (effects (font (size 1.27 1.27))))
        (number "20" (effects (font (size 1.27 1.27))))
      )
      (pin bidirectional line (at 22.86 15.24 180) (length 2.54)
        (name "SDIO_CLK" (effects (font (size 1.27 1.27))))
        (number "21" (effects (font (size 1.27 1.27))))
      )
      (pin bidirectional line (at 22.86 12.7 180) (length 2.54)
        (name "SDIO_DATA_0" (effects (font (size 1.27 1.27))))
        (number "22" (effects (font (size 1.27 1.27))))
      )
      (pin bidirectional line (at 22.86 -2.54 180) (length 2.54)
        (name "SDIO_DATA_1" (effects (font (size 1.27 1.27))))
        (number "23" (effects (font (size 1.27 1.27))))
      )
      (pin bidirectional line (at 22.86 -10.16 180) (length 2.54)
        (name "GPIO5" (effects (font (size 1.27 1.27))))
        (number "24" (effects (font (size 1.27 1.27))))
      )
      (pin bidirectional line (at 22.86 5.08 180) (length 2.54)
        (name "U0RXD" (effects (font (size 1.27 1.27))))
        (number "25" (effects (font (size 1.27 1.27))))
      )
      (pin bidirectional line (at 22.86 2.54 180) (length 2.54)
        (name "U0TXD" (effects (font (size 1.27 1.27))))
        (number "26" (effects (font (size 1.27 1.27))))
      )
      (pin bidirectional line (at -22.86 -7.62 0) (length 2.54)
        (name "XTAL_OUT" (effects (font (size 1.27 1.27))))
        (number "27" (effects (font (size 1.27 1.27))))
      )
      (pin bidirectional line (at -22.86 -20.32 0) (length 2.54)
        (name "XTAL_IN" (effects (font (size 1.27 1.27))))
        (number "28" (effects (font (size 1.27 1.27))))
      )
      (pin power_in line (at 5.08 25.4 270) (length 2.54)
        (name "VDDD" (effects (font (size 1.27 1.27))))
        (number "29" (effects (font (size 1.27 1.27))))
      )
      (pin power_in line (at -7.62 25.4 270) (length 2.54)
        (name "VDD3P3" (effects (font (size 1.27 1.27))))
        (number "3" (effects (font (size 1.27 1.27))))
      )
      (pin power_in line (at -10.16 25.4 270) (length 2.54)
        (name "VDDA" (effects (font (size 1.27 1.27))))
        (number "30" (effects (font (size 1.27 1.27))))
      )
      (pin input line (at -22.86 7.62 0) (length 2.54)
        (name "RES12K" (effects (font (size 1.27 1.27))))
        (number "31" (effects (font (size 1.27 1.27))))
      )
      (pin input line (at -22.86 5.08 0) (length 2.54)
        (name "~{EXT_RSTB}" (effects (font (size 1.27 1.27))))
        (number "32" (effects (font (size 1.27 1.27))))
      )
      (pin power_in line (at 0 -27.94 90) (length 2.54)
        (name "GND" (effects (font (size 1.27 1.27))))
        (number "33" (effects (font (size 1.27 1.27))))
      )
      (pin power_in line (at -5.08 25.4 270) (length 2.54)
        (name "VDD3P3" (effects (font (size 1.27 1.27))))
        (number "4" (effects (font (size 1.27 1.27))))
      )
      (pin power_in line (at -2.54 25.4 270) (length 2.54)
        (name "VDD_RTC" (effects (font (size 1.27 1.27))))
        (number "5" (effects (font (size 1.27 1.27))))
      )
      (pin input line (at -22.86 12.7 0) (length 2.54)
        (name "TOUT" (effects (font (size 1.27 1.27))))
        (number "6" (effects (font (size 1.27 1.27))))
      )
      (pin input line (at -22.86 10.16 0) (length 2.54)
        (name "CHIP_PU" (effects (font (size 1.27 1.27))))
        (number "7" (effects (font (size 1.27 1.27))))
      )
      (pin bidirectional line (at -22.86 2.54 0) (length 2.54)
        (name "XPD_DCDC" (effects (font (size 1.27 1.27))))
        (number "8" (effects (font (size 1.27 1.27))))
      )
      (pin bidirectional line (at 22.86 -12.7 180) (length 2.54)
        (name "MTMS" (effects (font (size 1.27 1.27))))
        (number "9" (effects (font (size 1.27 1.27))))
      )
    )
  )
)
